---
http_interactions:
- request:
    method: get
    uri: https://reqres.in/api/users?page=2
    body:
      encoding: US-ASCII
      string: ''
    headers:
      Content-Type:
      - application/json
      User-Agent:
      - Faraday v1.0.0
      Accept-Encoding:
      - gzip;q=1.0,deflate;q=0.6,identity;q=0.3
      Accept:
      - "*/*"
  response:
    status:
      code: 200
      message: OK
    headers:
      Date:
      - Mon, 20 Jan 2020 00:11:53 GMT
      Content-Type:
      - application/json; charset=utf-8
      Transfer-Encoding:
      - chunked
      Connection:
      - keep-alive
      Set-Cookie:
      - __cfduid=d1bc1661fc957f9477323a857c0ef4fcd1579479113; expires=Wed, 19-Feb-20
        00:11:53 GMT; path=/; domain=.reqres.in; HttpOnly; SameSite=Lax; Secure
      X-Powered-By:
      - Express
      Access-Control-Allow-Origin:
      - "*"
      Etag:
      - W/"414-k36Lu9tCb0XMJeh2/UG19C4xbw4"
      Via:
      - 1.1 vegur
      Cache-Control:
      - max-age=14400
      Cf-Cache-Status:
      - HIT
      Age:
      - '1263'
      Expect-Ct:
      - max-age=604800, report-uri="https://report-uri.cloudflare.com/cdn-cgi/beacon/expect-ct"
      Vary:
      - Accept-Encoding
      Server:
      - cloudflare
      Cf-Ray:
      - 557cd56ad826f730-GRU
    body:
      encoding: ASCII-8BIT
      string: '{"page":2,"per_page":6,"total":12,"total_pages":2,"data":[{"id":7,"email":"michael.lawson@reqres.in","first_name":"Michael","last_name":"Lawson","avatar":"https://s3.amazonaws.com/uifaces/faces/twitter/follettkyle/128.jpg"},{"id":8,"email":"lindsay.ferguson@reqres.in","first_name":"Lindsay","last_name":"Ferguson","avatar":"https://s3.amazonaws.com/uifaces/faces/twitter/araa3185/128.jpg"},{"id":9,"email":"tobias.funke@reqres.in","first_name":"Tobias","last_name":"Funke","avatar":"https://s3.amazonaws.com/uifaces/faces/twitter/vivekprvr/128.jpg"},{"id":10,"email":"byron.fields@reqres.in","first_name":"Byron","last_name":"Fields","avatar":"https://s3.amazonaws.com/uifaces/faces/twitter/russoedu/128.jpg"},{"id":11,"email":"george.edwards@reqres.in","first_name":"George","last_name":"Edwards","avatar":"https://s3.amazonaws.com/uifaces/faces/twitter/mrmoiree/128.jpg"},{"id":12,"email":"rachel.howell@reqres.in","first_name":"Rachel","last_name":"Howell","avatar":"https://s3.amazonaws.com/uifaces/faces/twitter/hebertialmeida/128.jpg"}]}'
    http_version: 
  recorded_at: Mon, 20 Jan 2020 00:11:53 GMT
recorded_with: VCR 4.0.0
